{
    "efficiencies": [
        ["LooseID", "TrackerMuons"],
        ["MediumID", "TrackerMuons"],
        ["TightID", "TrackerMuons"],
        ["LoosePFIso", "LooseID"],
        ["TightPFIso", "TightID"]
    ],
    "selection": "tag_isTight==1 and tag_pt>26 and tag_abseta<2.4 and tag_HLT_IsoMu24_v==1 and tag_PFIso<0.2 and pair_probeMultiplicity and IP_cuts",
    "definitions": {
	"IP_cuts": "abs(pair_dz)<0.5 and abs(tag_dz) < 0.5 and abs(probe_dz) < 0.5 and abs(tag_dxy) < 0.2 and abs(probe_dxy) < 0.2",
	"tag_PFIso": "(tag_pfIso04_charged + (0.5 * (((tag_pfIso04_neutral+tag_pfIso04_photon-0.5*tag_pfIso04_sumPU) + (0.0)) + abs((tag_pfIso04_neutral+tag_pfIso04_photon-0.5*tag_pfIso04_sumPU) - (0.0)))))/tag_pt",
        "probe_abseta": "abs(probe_eta)",
        "tag_abseta": "abs(tag_eta)",
        "TrackerMuons": "probe_isTracker == 1",
        "LooseID": "probe_CutBasedIdLoose == 1",
        "MediumID": "probe_CutBasedIdMedium == 1",
        "TightID": "probe_CutBasedIdTight == 1",
        "TightPFIso": "probe_PFIsoTight == 1",
        "LoosePFIso": "probe_PFIsoLoose == 1"
    },
    "binning": {
        "pt": [15, 20, 25, 30, 40, 50, 60, 120],
        "abseta": [0, 0.9, 1.2, 2.1, 2.4],
        "eta": [-2.4, -2.1, -1.6, -1.2, -0.9, -0.3, -0.2, 0.2, 0.3, 0.9, 1.2, 1.6, 2.1, 2.4],
        "mass": "np.array(range(60*4, 140*4+1)) * 0.25",
        "mcMass": "np.array(range(60*4, 140*4+1)) * 0.25"
    },
    "variables": {
        "pt": {"variable": "probe_pt", "pretty": "p_{T} (GeV)"},
        "abseta": {"variable": "probe_abseta", "pretty": "|#eta|"},
        "eta": {"variable": "probe_eta", "pretty": "#eta"},
        "mass": {"variable": "pair_mass", "pretty": "m(#mu#mu) (GeV)"},
        "mcMass": {"variable": "pair_mass", "pretty": "m(#mu#mu) (GeV)"}
    },
    "fitVariable": "mass",
    "fitVariableGen": "mcMass",
    "binVariables": [
        ["abseta", "pt"]
    ],
    "shifts": {
    },
    "fitShifts": {
        "massBinUp": {"shiftType": "massBinUp"},
        "massBinDown": {"shiftType": "massBinDown"}
    },
    "systematics" : {
        "SF": {
            "fitTypes": [],
            "shiftTypes": ["massBin"]
        },
        "dataEff": {
            "fitTypes": [],
            "shiftTypes": ["massBin"]
        },
        "mcEff": {
            "fitTypes": [],
            "shiftTypes": ["massBin"]
        }

    }
}
